{
  "compilerOptions": {
    "baseUrl": ".",
    "paths": {
      "@/*": ["*"],
      "@const/*": ["const/*"],
      "@client/*": ["client/*"],
      "@components/*": ["client/components/*"],
      "@utils/*": ["client/utils/*"],
      "@lib/*": ["client/lib/*"],
      "@hooks/*": ["client/hooks/*"],
      "@public/*": ["public/*"],
      "@locales/*": ["locales/*"]
    }
  }
}