<svg width="140" height="140" viewBox="0 0 140 140" fill="none" xmlns="http://www.w3.org/2000/svg">
<path d="M69.906 0C31.36 0 0 31.36 0 69.904C0 108.446 31.36 139.8 69.906 139.8C108.454 139.8 139.816 108.444 139.816 69.904C139.816 31.358 108.454 0 69.906 0ZM69.906 133.8C34.668 133.8 6 105.136 6 69.904C6 34.666 34.668 6 69.906 6C105.146 6 133.816 34.666 133.816 69.904C133.816 105.136 105.146 133.8 69.906 133.8ZM41.908 97.4H97.908V103.4H41.908V97.4ZM58.046 63.152C58.046 54.212 50.772 46.94 41.834 46.94C32.896 46.94 25.622 54.214 25.622 63.152V66.152H58.048V63.152H58.046ZM47.33 60.152C47.108 57.296 44.746 55.038 41.832 55.038C38.918 55.038 36.556 57.296 36.334 60.152H32.068C33.354 55.98 37.244 52.94 41.832 52.94C46.42 52.94 50.31 55.982 51.596 60.152H47.33ZM97.98 46.94C89.04 46.94 81.77 54.214 81.77 63.152V66.152H114.196V63.152C114.196 54.212 106.922 46.94 97.98 46.94ZM103.478 60.152C103.258 57.296 100.892 55.038 97.98 55.038C95.068 55.038 92.704 57.296 92.484 60.152H88.218C89.504 55.98 93.392 52.94 97.98 52.94C102.568 52.94 106.46 55.982 107.746 60.152H103.478Z" fill="#323232"/>
</svg>
