<svg width="1425" height="599" viewBox="0 0 1425 599" fill="none" xmlns="http://www.w3.org/2000/svg">
<rect x="866" y="567" width="633" height="32" rx="8" fill="#C18033"/>
<rect x="887.5" y="564.5" width="620" height="2" rx="1" fill="#FFFDEB" stroke="#F5EEE0"/>
<rect x="887.5" y="562.5" width="620" height="2" rx="1" fill="#FFFDEB" stroke="#F5EEE0"/>
<rect x="887.5" y="560.5" width="620" height="2" rx="1" fill="#FFFDEB" stroke="#F5EEE0"/>
<rect x="887.5" y="558.5" width="620" height="2" rx="1" fill="#FFFDEB" stroke="#F5EEE0"/>
<rect x="887.5" y="556.5" width="620" height="2" rx="1" fill="#FFFDEB" stroke="#F5EEE0"/>
<rect x="887.5" y="554.5" width="620" height="2" rx="1" fill="#FFFDEB" stroke="#F5EEE0"/>
</svg>
