<svg width="44" height="44" viewBox="0 0 44 44" fill="none" xmlns="http://www.w3.org/2000/svg">
<path d="M43.9999 21.9838C44.0038 27.2084 42.1481 32.2638 38.7651 36.2453C35.3821 40.2267 30.6925 42.8742 25.5358 43.7139C20.3791 44.5537 15.0919 43.5308 10.6205 40.8283C6.1491 38.1259 2.78539 33.9204 1.13145 28.9644C-0.522487 24.0085 -0.358689 18.6257 1.59353 13.7796C3.54574 8.93337 7.15893 4.94013 11.7864 2.51458C16.4138 0.0890327 21.7535 -0.610494 26.8496 0.541211C31.9457 1.69292 36.4656 4.62067 39.6002 8.80044V5.86532C39.6002 5.47663 39.7547 5.10385 40.0295 4.829C40.3044 4.55415 40.6771 4.39974 41.0658 4.39974C41.4545 4.39974 41.8273 4.55415 42.1021 4.829C42.377 5.10385 42.5314 5.47663 42.5314 5.86532V13.1932C42.5314 13.5819 42.377 13.9547 42.1021 14.2295C41.8273 14.5044 41.4545 14.6588 41.0658 14.6588H33.7379C33.3492 14.6588 32.9765 14.5044 32.7016 14.2295C32.4268 13.9547 32.2723 13.5819 32.2723 13.1932C32.2723 12.8045 32.4268 12.4318 32.7016 12.1569C32.9765 11.8821 33.3492 11.7276 33.7379 11.7276H38.0677C35.5979 7.86606 31.8183 5.02471 27.4226 3.72505C23.0268 2.42539 18.3098 2.75462 14.1373 4.65231C9.96469 6.55 6.61646 9.88884 4.70707 14.0561C2.79767 18.2233 2.4552 22.9394 3.74251 27.3387C5.02982 31.7381 7.86055 35.5257 11.7152 38.0063C15.5698 40.4869 20.1898 41.4941 24.7272 40.8432C29.2645 40.1922 33.415 37.9267 36.4167 34.4625C39.4185 30.9982 41.0702 26.5676 41.0688 21.9838C41.0688 21.5951 41.2232 21.2223 41.498 20.9474C41.7729 20.6726 42.1456 20.5182 42.5343 20.5182C42.923 20.5182 43.2958 20.6726 43.5707 20.9474C43.8455 21.2223 43.9999 21.5951 43.9999 21.9838Z" fill="#212121"/>
</svg>
