<svg width="113" height="60" viewBox="0 0 113 60" fill="none" xmlns="http://www.w3.org/2000/svg">
<path d="M58.8973 52.6143C56.2975 53.5009 50.5347 54.3035 49.0164 54.4424C48.5877 48.1867 48.1956 43.277 47.8187 38.8356C47.0236 29.4528 46.3531 22.1974 45.8203 8.82557C49.4869 9.10144 53.1381 9.06946 56.7765 8.70068C57.4821 21.6067 57.7876 26.9902 58.2094 36.3389C58.3998 40.6028 58.6051 45.656 58.8973 52.6143Z" fill="#CCA863"/>
<path d="M74.3717 51.8504C71.8162 52.7265 64.171 53.5327 62.6514 53.686C62.2163 47.3422 61.8192 42.1693 61.4426 37.4069C60.7451 28.3833 60.148 20.7989 59.6383 9.23867C63.8056 8.62626 67.9669 7.60468 72.109 6.15816C72.957 21.6309 73.3386 27.9261 73.9733 42.5622C74.0973 45.3316 74.2249 48.3785 74.3717 51.8504Z" fill="#CCA863"/>
<path d="M14.4182 22.6715C15.1311 22.4738 16.8833 22.152 18.2554 22.029C18.8333 23.789 19.3599 28.6527 19.4638 30.53C18.1698 30.9082 17.1814 31.11 15.7206 31.2541C16.5988 37.0254 15.5634 39.9663 20.726 38.7588C21.3924 40.8187 22.2788 44.9126 22.8182 47.2528C18.9033 50.0188 12.223 50.7232 9.46801 47.2762C6.83551 44.0739 6.59465 37.9813 5.84389 32.7178C5.24202 32.8089 4.56176 32.9657 3.59449 32.9359C3.02435 31.2496 2.32909 26.6478 2.25078 25.2835C3.26142 24.9962 3.94168 24.8394 4.74852 24.7232C4.34587 22.6289 4.02307 20.2938 3.81087 18.3336C6.61309 17.4508 10.3052 16.9702 13.5913 16.4963C13.8913 18.1289 14.1546 19.8457 14.4182 22.6715Z" fill="#CCA863"/>
<path d="M44.7651 37.4041C44.7651 37.4041 41.4701 43.0576 34.3283 43.107C30.2581 43.13 26.2325 41.5518 24.4887 38.6056C22.87 35.8751 22.2052 32.2101 22.4069 28.7262C22.6334 24.0187 24.0634 16.59 33.2769 16.5251C43.707 16.4544 43.541 26.2165 43.5659 30.2318C43.5659 30.2318 38.1203 31.0488 31.5078 31.8031C31.5152 33.6279 32.9999 34.4929 34.3391 34.5712C37.0176 34.7278 39.562 33.1794 40.7667 32.0342C42.0263 33.4624 43.9348 36.1902 44.7651 37.4041ZM33.3141 22.6283C31.6771 22.6396 30.9017 23.999 30.9507 26.0027C33.4977 25.8555 33.3671 25.8582 35.4116 25.6651C35.5217 23.8219 34.4302 22.6133 33.3141 22.6283Z" fill="#CCA863"/>
<path d="M89.4567 35.3201C91.0378 34.9681 93.4297 34.617 95.1491 34.3359C95.3267 36.9934 95.1183 40.5497 95.0137 43.4442C88.7669 43.9983 80.7214 44.4324 77.237 44.6984C78.347 38.8749 80.0741 34.6983 82.0817 28.081C80.1443 28.2108 77.446 28.2713 75.8224 27.9774C75.7194 25.137 75.4689 22.3269 75.5946 19.2009C78.027 18.7222 88.3408 17.3859 93.8772 17.1609C93.7755 23.8352 91.2821 30.7 89.4567 35.3201Z" fill="#CCA863"/>
<path d="M107.71 16.2914C107.769 18.8213 106.817 21.011 103.767 21.5939C100.717 22.1769 96.6076 20.7224 97.1223 16.1872C97.6371 11.6519 102.72 11.7943 102.72 11.7943C105.459 11.7666 107.607 13.772 107.71 16.2914ZM97.9096 24.2266C98.4966 31.4452 99.1554 42.8002 99.7927 49.3083C103.048 49.3278 106.277 49.0093 108.949 48.7567C108.966 42.3811 108.418 30.7591 107.912 23.4457C104.401 23.5342 100.521 23.8518 97.9096 24.2266Z" fill="#CCA863"/>
</svg>
