<svg width="28" height="39" viewBox="0 0 28 39" fill="none" xmlns="http://www.w3.org/2000/svg">
<path d="M13.9082 0C6.24337 0 0 6.24337 0 13.9082C0 21.5731 6.24337 27.8165 13.9082 27.8165C21.5731 27.8165 27.8164 21.5731 27.8164 13.9082C27.8164 6.24337 21.5731 0 13.9082 0ZM13.9082 2.78213C20.07 2.78213 25.0355 7.74762 25.0355 13.9094C25.0355 20.0713 20.07 25.0368 13.9082 25.0368C7.7464 25.0368 2.78091 20.0713 2.78091 13.9094C2.78091 7.74762 7.7464 2.78213 13.9082 2.78213Z" fill="#FFE353"/>
<path d="M20.9415 22.8314C20.6604 22.8387 20.4 22.93 20.1858 23.0785L20.1906 23.076C18.342 24.3478 16.1525 25.0306 13.9083 25.0355C11.6641 25.0355 9.47346 24.3563 7.62236 23.0894C7.40208 22.9373 7.12946 22.846 6.83616 22.846C6.16436 22.846 5.60331 23.3219 5.4743 23.9547L5.47308 23.9632L2.81022 37.2788C2.79318 37.3603 2.78345 37.4552 2.78345 37.5502C2.78345 38.3181 3.40535 38.9412 4.17451 38.9412C4.37167 38.9412 4.56031 38.8999 4.7307 38.8256L4.72218 38.8293L13.9108 34.8922L23.0993 38.8293C23.2612 38.8999 23.4486 38.9412 23.6458 38.9412C24.4137 38.9412 25.0368 38.3193 25.0368 37.5502C25.0368 37.454 25.0271 37.3591 25.0089 37.269L25.0101 37.2776L22.3436 23.9462C22.2109 23.3048 21.6511 22.8278 20.9793 22.8278C20.9671 22.8278 20.9537 22.8278 20.9415 22.829V22.8314ZM19.9643 26.2452L21.7618 35.2342L14.456 32.104C14.2941 32.0334 14.1067 31.992 13.9083 31.992C13.7099 31.992 13.5225 32.0334 13.3521 32.1076L13.3607 32.104L6.05483 35.2342L7.84995 26.2561C9.7473 27.1859 11.7773 27.8176 13.9083 27.8176C13.9095 27.8176 13.9095 27.8176 13.9095 27.8176H13.9108C16.0406 27.8103 18.0693 27.1774 19.9643 26.244V26.2452Z" fill="#FFE353"/>
<path d="M10.5715 17.1757C10.6835 18.6037 12.0555 19.9477 14.0295 19.9477C16.2135 19.9477 17.5155 18.4777 17.5155 16.7837C17.5155 14.8377 16.2275 13.7457 14.4075 13.7457C13.8055 13.7457 13.1615 13.9417 12.7695 14.3057L13.2175 12.3037H17.0255V10.6377H11.9015L10.8235 15.2997C11.0195 15.3557 12.4055 15.8317 12.5875 15.9017C12.8815 15.5657 13.3715 15.2857 13.9875 15.2857C14.8275 15.2857 15.5975 15.7757 15.5975 16.8117C15.5975 17.7217 14.8975 18.2957 14.0295 18.2957C13.0635 18.2957 12.4195 17.6097 12.3775 16.7697L10.5715 17.1757Z" fill="#FFE353"/>
</svg>
