<svg width="32" height="32" viewBox="0 0 32 32" fill="none" xmlns="http://www.w3.org/2000/svg">
<path d="M14.857 0.001C6.665 0.001 0 6.666 0 14.858C0 23.05 6.665 29.715 14.857 29.715C18.542 29.715 21.916 28.363 24.515 26.133L30.049 31.667C30.256 31.874 30.542 32.001 30.857 32.001C31.488 32.001 32 31.489 32 30.858C32 30.542 31.872 30.256 31.665 30.049L26.13 24.515C28.361 21.916 29.714 18.543 29.714 14.857C29.714 6.665 23.049 0 14.857 0V0.001ZM14.857 2.286C21.813 2.286 27.428 7.901 27.428 14.857C27.428 21.813 21.813 27.428 14.857 27.428C7.901 27.428 2.286 21.813 2.286 14.857C2.286 7.901 7.901 2.286 14.857 2.286Z" fill="#323232"/>
</svg>
