<svg width="161" height="151" viewBox="0 0 161 151" fill="none" xmlns="http://www.w3.org/2000/svg">
<path d="M105.497 62.816C118.043 62.816 129.443 61.2609 141.45 59.1649C155.548 56.7985 162.698 57.8803 159.325 75.054C156.694 88.509 148.533 99.1242 134.165 91.3487C128.971 88.509 124.451 81.8153 119.797 78.1642C113.659 73.296 109.612 71.8762 101.922 68.8336L105.497 62.816Z" fill="#323232"/>
<path d="M63.609 42.5323C55.7843 32.7284 49.9158 22.7893 44.0473 12.0389C37.0996 -0.469532 31.7707 -5.40528 20.5059 7.91448C11.6695 18.3269 8.49914 31.3762 23.4739 37.7994C28.9377 40.0983 36.9647 39.4897 42.6983 40.842C50.3205 42.6676 53.9631 44.8988 61.1132 49.0908L63.609 42.5323Z" fill="#323232"/>
<path d="M69.6799 150.849C108.163 150.849 139.36 119.578 139.36 81.0044C139.36 42.4305 108.163 11.1602 69.6799 11.1602C31.1967 11.1602 0 42.4305 0 81.0044C0 119.578 31.1967 150.849 69.6799 150.849Z" fill="#6291F2"/>
<path d="M88.6343 93.8505C91.0626 96.2845 94.9075 92.4982 92.4117 90.0641C89.9834 87.6301 86.206 91.4164 88.6343 93.8505Z" fill="#323232"/>
<path d="M31.2984 75.5941C33.7267 78.0282 37.5716 74.2418 35.0758 71.8078C32.6474 69.3737 28.87 73.16 31.2984 75.5941Z" fill="#323232"/>
<path d="M65.9392 91.364C66.7671 87.5702 63.2785 83.5826 58.147 82.4574C53.0156 81.3322 48.1845 83.4956 47.3566 87.2894C46.5286 91.0833 50.0173 95.0709 55.1487 96.196C60.2802 97.3212 65.1112 95.1578 65.9392 91.364Z" fill="#323232"/>
<path d="M53.2222 94.121C51.266 103.722 49.3773 113.323 47.4211 122.992C47.0838 124.682 49.6471 125.426 50.0518 123.736C52.008 114.134 53.8967 104.533 55.8529 94.8648C56.1901 93.1745 53.5594 92.4307 53.2222 94.121Z" fill="#323232"/>
<path d="M30.2185 110.416C32.1747 114.946 36.0195 119.002 39.9993 121.842C49.8476 128.671 62.0567 127.319 72.647 122.924C74.1984 122.248 73.5239 119.679 71.905 120.287C61.8544 124.479 50.1848 125.967 40.8762 119.138C37.4361 116.568 34.1983 112.985 32.5119 108.996C31.8374 107.508 29.544 108.86 30.2185 110.416Z" fill="#323232"/>
</svg>
