<svg width="99" height="99" viewBox="0 0 99 99" fill="none" xmlns="http://www.w3.org/2000/svg">
<rect x="0.0546875" y="18.6003" width="82" height="82" rx="14" transform="rotate(-13.071 0.0546875 18.6003)" fill="#ED694A"/>
<path d="M44.6466 61.0122C45.8216 63.7649 48.6933 65.4319 51.718 65.0492C55.1124 64.5818 57.416 61.7298 57.5043 58.3778C57.5264 56.4356 54.5316 56.2691 54.4355 58.2282C54.3277 62.5145 48.9372 63.4389 47.2706 59.559C46.5534 57.7861 43.9294 59.2393 44.6466 61.0122Z" fill="#323232"/>
<path d="M37.9379 47.0267L36.6079 46.1962C35.6658 45.6079 34.4023 45.8973 33.8101 46.8369C33.2179 47.7765 33.506 49.0348 34.4481 49.623L35.7781 50.4535L39.2139 52.599L41.3738 49.1721L42.2098 47.8456C42.802 46.906 42.5139 45.6478 41.5718 45.0595C40.6297 44.4712 39.3662 44.7606 38.774 45.7002L37.9379 47.0267Z" fill="#323232"/>
<path d="M57.3852 42.5731L56.0552 41.7426C55.1131 41.1543 53.8496 41.4437 53.2573 42.3833C52.6651 43.3229 52.9533 44.5811 53.8953 45.1694L55.2254 45.9999L58.6612 48.1453L60.821 44.7185L61.6571 43.392C62.2493 42.4524 61.9612 41.1942 61.0191 40.6059C60.077 40.0176 58.8135 40.307 58.2212 41.2466L57.3852 42.5731Z" fill="#323232"/>
</svg>
