<svg width="83" height="100" viewBox="0 0 83 100" fill="none" xmlns="http://www.w3.org/2000/svg">
<path d="M59.1259 14.1625L45.4695 16.3674C46.7822 16.4993 48.0909 17.0332 49.202 17.9173L71.8578 35.7895C72.969 36.6737 73.795 37.8479 74.2849 39.1154L72.5277 24.1307L59.1259 14.1625Z" fill="#D3E5F7"/>
<path d="M71.5645 15.992C71.3267 13.9125 69.5332 12.479 67.5395 12.8245L59.1274 14.1622L72.5292 24.1305L71.5645 15.992Z" fill="#323232"/>
<path d="M73.1967 47.1794L42.3314 89.744C39.6931 93.3985 34.8171 94.1811 31.4284 91.4772L8.77256 73.605C5.37466 70.9352 4.7734 65.8263 7.444 62.1804L38.3001 19.65C39.1735 18.4546 40.3143 17.5508 41.534 16.998C42.7859 16.4538 44.1257 16.2264 45.4384 16.3582C46.7511 16.4901 48.0598 17.024 49.1709 17.9081L71.8267 35.7803C72.9379 36.6645 73.7639 37.8387 74.2538 39.1062C74.7346 40.4079 74.9116 41.8114 74.7477 43.1968C74.6069 44.6252 74.07 45.984 73.1967 47.1794Z" fill="#94C9FF"/>
<path d="M43.0439 35.8745C43.875 37.4166 46.2264 35.9942 45.363 34.4434C44.5318 32.9013 42.2127 34.3323 43.0439 35.8745Z" fill="#323232"/>
<path d="M56.4735 45.4836C57.3047 47.0258 59.656 45.6034 58.7926 44.0526C57.9615 42.5105 55.6424 43.9415 56.4735 45.4836Z" fill="#323232"/>
<path d="M39.7564 43.497C39.8604 45.4308 40.4988 47.4344 41.5326 48.9942C43.7339 52.2595 47.4463 52.5945 51.0095 51.6801C51.8612 51.4685 51.5047 50.0902 50.6852 50.3104C47.4166 51.1572 44.0865 50.8147 42.2905 47.5846C41.6118 46.3765 41.1768 44.9039 41.0735 43.4835C41.0768 42.5681 39.7183 42.6072 39.7564 43.497Z" fill="#323232"/>
<path d="M60.9538 42.6893C61.3133 42.8956 61.6131 43.1959 61.8945 43.5645C62.4713 44.3788 62.3482 45.2254 61.7875 46.0281C61.2773 46.771 62.4343 47.4841 62.9444 46.7412C64.222 44.8112 63.4774 42.5592 61.6659 41.4508C60.9146 41.0296 60.2117 42.2339 60.9538 42.6893Z" fill="#323232"/>
<path d="M41.7767 31.5772C41.6158 31.7906 41.8779 31.4577 41.9698 31.3724C42.1721 31.1334 42.3975 30.9372 42.6552 30.7497C43.4834 30.2386 44.2526 30.3348 44.9398 30.9954C45.5807 31.5703 46.5373 30.5804 45.9055 29.9713C44.19 28.3755 41.9941 28.9599 40.6198 30.864C40.1096 31.607 41.2757 32.2859 41.7767 31.5772Z" fill="#323232"/>
</svg>
